{
  "comment": "alipay_support",
  "version": 20200828,
  "public": [
    {
      "ifaaModel": "realme-R9795",
      "oppoModel": [
        "RMX2071",
        "RMX2072",
        "RMX2073",
        "RMX2075",
        "RMX2076"
      ],
      "bioType": [
        "optical_fingerprint"
      ],
      "ifaaVersion": "4"
    },
    {
      "ifaaModel": "realme-RA601",
      "oppoModel": [
        "RMX2121",
        "RMX2126"
      ],
      "bioType": [
        "optical_fingerprint"
      ],
      "ifaaVersion": "4"
    },
    {
      "ifaaModel": "realme-RA702",
      "oppoModel": [
        "RMX2202",
        "RMX3220",
        "RMX3221"
      ],
      "bioType": [
        "optical_fingerprint"
      ],
      "ifaaVersion": "4"
    },
    {
      "ifaaModel": "realme-RA645",
      "oppoModel": [
        "RMX3115",
        "RMX3116",
        "RMX3117",
        "RMX3118"
      ],
      "bioType": [
        "optical_fingerprint"
      ],
      "ifaaVersion": "4"
    },
    {
      "ifaaModel": "realme-RA651",
      "oppoModel": [
        "RMX3121",
        "RMX3122",
        "RMX3123",
        "RMX3052",
        "RMX3041",
        "RMX3042",
        "RMX3043",
        "RMX3241",
        "RMX3242"
      ],
      "bioType": [
        "fingerprint"
      ],
      "ifaaVersion": "4"
    },
    {
      "ifaaModel": "realme-RA669",
      "oppoModel": [
        "RMX3161"
      ],
      "bioType": [
        "fingerprint"
      ],
      "ifaaVersion": "4"
    },
    {
      "ifaaModel": "realme-RA615",
      "oppoModel": [
        "RMX3031"
      ],
      "bioType": [
        "optical_fingerprint"
      ],
      "ifaaVersion": "4"
    },
    {  
      "ifaaModel": "realme-RA21615",
      "oppoModel": [
        "RMX3366"
      ],
      "bioType": [
        "optical_fingerprint"
      ],
      "ifaaVersion": "4"
    },
   {
      "ifaaModel": "realme-RA21619",
      "oppoModel": [
        "RMX3370"
      ],
      "bioType": [
        "optical_fingerprint"
      ],
      "ifaaVersion": "4"
    },
    {
      "ifaaModel": "realme-R2169E",
      "oppoModel": [
        "RMX3392",
        "RMX3393",
        "RMX3451"
      ],
      "bioType": [
        "optical_fingerprint"
      ],
      "ifaaVersion": "4"
     },
    {
      "ifaaModel": "realme-R21617",
      "oppoModel": [
        "RMX3310",
        "RMX3311",
        "RMX3312"
      ],
      "bioType": [
        "optical_fingerprint"
      ],
      "ifaaVersion": "4"
    },
    {
      "ifaaModel": "realme-R9751",
      "oppoModel": [
         "RMX2051",
         "RMX2025",
         "RMX2141",
         "RMX2142",
         "RMX2052",
         "RMX2144"
      ],
      "bioType": [
        "fingerprint"
      ],
      "ifaaVersion": "4"
    },
    {
      "ifaaModel": "realme-R21631",
      "oppoModel": [
         "RMX3300",
         "RMX3301"
      ],
      "bioType": [
        "fingerprint"
      ],
      "ifaaVersion": "4"
    }
  ],
  "confidential": [
    {
      "ifaaModel": "realme-R9795",
      "oppoModel": [
        "RMX2071",
        "RMX2072",
        "RMX2073",
        "RMX2075",
        "RMX2076"
      ],
      "bioType": [
        "optical_fingerprint"
      ],
      "ifaaVersion": "4"
    },
    {
      "ifaaModel": "realme-RA601",
      "oppoModel": [
        "PEGM00",
        "PEGT00"
      ],
      "bioType": [
        "optical_fingerprint"
      ],
      "ifaaVersion": "4"
    },
    {
      "ifaaModel": "realme-RA645",
      "oppoModel": [
        "RMX3115",
        "RMX3116",
        "RMX3117",
        "RMX3118"
      ],
      "bioType": [
        "optical_fingerprint"
      ],
      "ifaaVersion": "4"
    },
    {
      "ifaaModel": "realme-R9751",
      "oppoModel": [
         "RMX2051",
         "RMX2025",
         "RMX2141",
         "RMX2142",
         "RMX2052",
         "RMX2144"
      ],
      "bioType": [
        "fingerprint"
      ],
      "ifaaVersion": "4"
    },
    {
      "ifaaModel": "realme-RA651",
      "oppoModel": [
        "RMX3121",
        "RMX3122",
        "RMX3123",
        "RMX3052",
        "RMX3041",
        "RMX3042",
        "RMX3043",
        "RMX3241",
        "RMX3242"
      ],
      "bioType": [
        "fingerprint"
      ],
      "ifaaVersion": "4"
    },
    {
      "ifaaModel": "realme-RA669",
      "oppoModel": [
        "RMX3161"
      ],
      "bioType": [
        "fingerprint"
      ],
      "ifaaVersion": "4"
    },
    {
      "ifaaModel": "realme-RA615",
      "oppoModel": [
        "RMX3031"
      ],
      "bioType": [
        "optical_fingerprint"
      ],
      "ifaaVersion": "4"
    },
    {  
      "ifaaModel": "realme-RA21615",
      "oppoModel": [
        "RMX3366"
      ],
      "bioType": [
        "optical_fingerprint"
      ],
      "ifaaVersion": "4"
    },
   {
      "ifaaModel": "realme-RA21619",
      "oppoModel": [
        "RMX3370"
      ],
      "bioType": [
        "optical_fingerprint"
      ],
      "ifaaVersion": "4"
    },
    {
      "ifaaModel": "realme-R2169E",
      "oppoModel": [
        "RMX3392",
        "RMX3393",
        "RMX3451"
      ],
      "bioType": [
        "optical_fingerprint"
      ],
      "ifaaVersion": "4"
     },
    {
      "ifaaModel": "realme-R21617",
      "oppoModel": [
        "RMX3310",
        "RMX3311",
        "RMX3312"
      ],
      "bioType": [
        "optical_fingerprint"
      ],
      "ifaaVersion": "4"
    },
    {
      "ifaaModel": "realme-RA702",
      "oppoModel": [
        "RMX2202",
        "RMX3220",
        "RMX3221"
      ],
      "bioType": [
        "optical_fingerprint"
      ],
      "ifaaVersion": "4"
    },
    {
      "ifaaModel": "realme-R21631",
      "oppoModel": [
         "RMX3300",
         "RMX3301"
      ],
      "bioType": [
        "fingerprint"
      ],
      "ifaaVersion": "4"
    }
  ]
}
